Flu Analysis: Machine Learning Techniques
…
#Setting up: Random Seed, Data Split, and Cross Validation

set.seed(123)

data_split <- initial_split(data, prop = .7, strata = BodyTemp)

train_data <- training(data_split)
test_data  <- testing(data_split)

folds <- vfold_cv(train_data, v = 5, r=5, strata= "BodyTemp")
folds

## #  5-fold cross-validation repeated 5 times using stratification 
## # A tibble: 25 × 3
##    splits            id      id2  
##    <list>            <chr>   <chr>
##  1 <split [405/103]> Repeat1 Fold1
##  2 <split [405/103]> Repeat1 Fold2
##  3 <split [406/102]> Repeat1 Fold3
##  4 <split [408/100]> Repeat1 Fold4
##  5 <split [408/100]> Repeat1 Fold5
##  6 <split [405/103]> Repeat2 Fold1
##  7 <split [405/103]> Repeat2 Fold2
##  8 <split [406/102]> Repeat2 Fold3
##  9 <split [408/100]> Repeat2 Fold4
## 10 <split [408/100]> Repeat2 Fold5
## # … with 15 more rows
…
# Extracting Model/Recipes with Parsnip
bodytmp_fit_null %>% 
  extract_fit_parsnip() %>% 
  tidy()

## # A tibble: 1 × 5
##   term        estimate std.error statistic p.value
##   <chr>          <dbl>     <dbl>     <dbl>   <dbl>
## 1 (Intercept)     98.9    0.0537     1842.       0

# Obtaining Predictions
predict(bodytmp_fit_null, train_data)

## # A tibble: 508 × 1
##    .pred
##    <dbl>
##  1  98.9
##  2  98.9
##  3  98.9
##  4  98.9
##  5  98.9
##  6  98.9
##  7  98.9
##  8  98.9
##  9  98.9
## 10  98.9
## # … with 498 more rows

bodytmp_aug_null <- 
  augment(bodytmp_fit_null, train_data)

bodytmp_aug_null %>%
  select(BodyTemp)

## # A tibble: 508 × 1
##    BodyTemp
##       <dbl>
##  1     97.8
##  2     98.1
##  3     98.1
##  4     98.2
##  5     97.8
##  6     98.2
##  7     98.1
##  8     98  
##  9     97.7
## 10     98.2
## # … with 498 more rows
…
# RMSE 1.21
rmse_train

## # A tibble: 1 × 3
##   .metric .estimator .estimate
##   <chr>   <chr>          <dbl>
## 1 rmse    standard        1.21

# Now on Test Data

# Obtaining Predictions
predict(bodytmp_fit_null, test_data)

## # A tibble: 222 × 1
##    .pred
##    <dbl>
##  1  98.9
##  2  98.9
##  3  98.9
##  4  98.9
##  5  98.9
##  6  98.9
##  7  98.9
##  8  98.9
##  9  98.9
## 10  98.9
## # … with 212 more rows

bodytmp_aug_null <- 
  augment(bodytmp_fit_null, test_data)

bodytmp_aug_null %>%
  select(BodyTemp)

## # A tibble: 222 × 1
##    BodyTemp
##       <dbl>
##  1    100. 
##  2     98.8
##  3     98.2
##  4     97.9
##  5    102. 
##  6     99.3
##  7     97.8
##  8     99.5
##  9     99.7
## 10     98.8
## # … with 212 more rows
…
## ! Fold1, Repeat5: internal: A correlation computation is required, but `estimate` is const...

## ! Fold2, Repeat5: internal: A correlation computation is required, but `estimate` is const...

## ! Fold3, Repeat5: internal: A correlation computation is required, but `estimate` is const...

## ! Fold4, Repeat5: internal: A correlation computation is required, but `estimate` is const...

## ! Fold5, Repeat5: internal: A correlation computation is required, but `estimate` is const...

tree_res %>% 
  collect_metrics()

## # A tibble: 50 × 8
##    cost_complexity tree_depth .metric .estimator     mean     n  std_err .config
##              <dbl>      <int> <chr>   <chr>         <dbl> <int>    <dbl> <chr>  
##  1    0.0000000001          1 rmse    standard     1.19      25  0.0181  Prepro…
##  2    0.0000000001          1 rsq     standard     0.0361    25  0.00422 Prepro…
##  3    0.0000000178          1 rmse    standard     1.19      25  0.0181  Prepro…
##  4    0.0000000178          1 rsq     standard     0.0361    25  0.00422 Prepro…
##  5    0.00000316            1 rmse    standard     1.19      25  0.0181  Prepro…
##  6    0.00000316            1 rsq     standard     0.0361    25  0.00422 Prepro…
##  7    0.000562              1 rmse    standard     1.19      25  0.0181  Prepro…
##  8    0.000562              1 rsq     standard     0.0361    25  0.00422 Prepro…
##  9    0.1                   1 rmse    standard     1.21      25  0.0177  Prepro…
## 10    0.1                   1 rsq     standard   NaN          0 NA       Prepro…
## # … with 40 more rows
…
