Tidy Tuesday
…
newdata <- na.omit(newdata)

set.seed(123)

data_split <- initial_split(newdata, prop = .7, strata = "meters_ps")

train_data <- training(data_split)
test_data  <- testing(data_split)

folds <- vfold_cv(train_data, v = 5, r=5, strata= "meters_ps")
folds

## #  5-fold cross-validation repeated 5 times using stratification 
## # A tibble: 25 × 3
##    splits           id      id2  
##    <list>           <chr>   <chr>
##  1 <split [140/36]> Repeat1 Fold1
##  2 <split [140/36]> Repeat1 Fold2
##  3 <split [140/36]> Repeat1 Fold3
##  4 <split [140/36]> Repeat1 Fold4
##  5 <split [144/32]> Repeat1 Fold5
##  6 <split [140/36]> Repeat2 Fold1
##  7 <split [140/36]> Repeat2 Fold2
##  8 <split [140/36]> Repeat2 Fold3
##  9 <split [140/36]> Repeat2 Fold4
## 10 <split [144/32]> Repeat2 Fold5
## # … with 15 more rows
…
# Fitting the model
time_fit <- 
  time_cont_workflow %>% 
  fit(data = train_data)

# Extracting Model/Recipes with Parsnip
time_fit %>% 
  extract_fit_parsnip() %>% 
  tidy()

## # A tibble: 39 × 5
##    term                          estimate std.error statistic       p.value
##    <chr>                            <dbl>     <dbl>     <dbl>         <dbl>
##  1 (Intercept)                   0.0356     0.00570    6.25   0.00000000448
##  2 team_factor_Green.Ducks       0.00369    0.00590    0.626  0.532        
##  3 team_factor_Hazers            0.0122     0.00630    1.93   0.0550       
##  4 team_factor_Hornets          -0.00112    0.00599   -0.188  0.851        
##  5 team_factor_Limers            0.000719   0.00652    0.110  0.912        
##  6 team_factor_Mellow.Yellow     0.0114     0.00608    1.88   0.0625       
##  7 team_factor_Midnight.Wisps    0.00357    0.00593    0.602  0.548        
##  8 team_factor_O.rangers         0.00436    0.00612    0.713  0.477        
##  9 team_factor_Raspberry.Racers -0.000146   0.00615   -0.0238 0.981        
## 10 team_factor_Rojo.Rollers      0.000600   0.00656    0.0913 0.927        
## # … with 29 more rows

# Obtaining Predictions
predict(time_fit , train_data)

## Warning in predict.lm(object = object$fit, newdata = new_data, type =
## "response"): prediction from a rank-deficient fit may be misleading

## # A tibble: 176 × 1
##     .pred
##     <dbl>
##  1 0.0319
##  2 0.0358
##  3 0.0231
##  4 0.0393
##  5 0.0356
##  6 0.0395
##  7 0.0341
##  8 0.0268
##  9 0.0353
## 10 0.0441
## # … with 166 more rows

time_aug <- 
  augment(time_fit, train_data)

## Warning in predict.lm(object = object$fit, newdata = new_data, type =
## "response"): prediction from a rank-deficient fit may be misleading

time_aug %>%
  select(meters_ps)

## # A tibble: 176 × 1
##    meters_ps
##        <dbl>
##  1    0.0352
##  2    0.0382
##  3    0.0269
##  4    0.0384
##  5    0.0357
##  6    0.0387
##  7    0.0352
##  8    0.0270
##  9    0.0268
## 10    0.0357
## # … with 166 more rows
…
LASSO_tune_plot

## NULL

The Lasso vars shows the variables that are part of the best-fit LASSO model, i.e. those that have a non-zero coefficient The team_factor variable category is being compared to Limers, who had the second lowest ranks. Here we see that the Hazers, Hornets, Mellow Yellow, and Rasberry Racers came out in the LASSO model. Host factor stayed as well and it actually looks like those who host, tend to have a lower speed time. The diagnostic plots don’t look great. Maybe that’s because we don’t have a lot of data? Maybe it’s because we used data from both the qualifers and the real races.

# It appears that all predictors stayed in the model
LASSO_vars <- tidy(extract_fit_parsnip(best_lasso_fit)) %>% filter(estimate != 0)
LASSO_vars

## # A tibble: 22 × 3
##    term                          estimate penalty
##    <chr>                            <dbl>   <dbl>
##  1 (Intercept)                   0.412      0.001
##  2 team_factor_Hazers            0.00655    0.001
##  3 team_factor_Hornets          -0.00161    0.001
##  4 team_factor_Mellow.Yellow     0.00490    0.001
##  5 team_factor_Raspberry.Racers -0.000630   0.001
##  6 team_factor_Savage.Speeders   0.000632   0.001
##  7 site_factor_Savage.Speedway   0.0160     0.001
##  8 host_factor_Yes              -0.00159    0.001
##  9 race_factor_S1Q2              0.0161     0.001
## 10 race_factor_S1Q3              0.129      0.001
## # … with 12 more rows
…
## ! Fold4, Repeat1: internal: A correlation computation is required, but `estimate` is const...

## ! Fold1, Repeat3: internal: A correlation computation is required, but `estimate` is const...

## ! Fold4, Repeat4: internal: A correlation computation is required, but `estimate` is const...

## ! Fold5, Repeat4: internal: A correlation computation is required, but `estimate` is const...

## ! Fold1, Repeat5: internal: A correlation computation is required, but `estimate` is const...

tree_res %>% 
  collect_metrics()

## # A tibble: 50 × 8
##    cost_complexity tree_depth .metric .estimator  mean     n std_err .config    
##              <dbl>      <int> <chr>   <chr>      <dbl> <int>   <dbl> <chr>      
##  1    0.0000000001          1 rmse    standard   0.219    25 0.00208 Preprocess…
##  2    0.0000000001          1 rsq     standard   0.132    20 0.0144  Preprocess…
##  3    0.0000000178          1 rmse    standard   0.219    25 0.00208 Preprocess…
##  4    0.0000000178          1 rsq     standard   0.132    20 0.0144  Preprocess…
##  5    0.00000316            1 rmse    standard   0.219    25 0.00208 Preprocess…
##  6    0.00000316            1 rsq     standard   0.132    20 0.0144  Preprocess…
##  7    0.000562              1 rmse    standard   0.219    25 0.00208 Preprocess…
##  8    0.000562              1 rsq     standard   0.132    20 0.0144  Preprocess…
##  9    0.1                   1 rmse    standard   0.219    25 0.00208 Preprocess…
## 10    0.1                   1 rsq     standard   0.132    20 0.0144  Preprocess…
## # … with 40 more rows
…
# Obtaining Predictions
predict(fit_simple , train_data)

## # A tibble: 176 × 1
##    .pred
##    <dbl>
##  1 0.312
##  2 0.312
##  3 0.312
##  4 0.238
##  5 0.238
##  6 0.238
##  7 0.238
##  8 0.238
##  9 0.363
## 10 0.363
## # … with 166 more rows

aug_simple <- 
  augment(fit_simple , train_data)

aug_simple %>%
  select(meters_ps)

## # A tibble: 176 × 1
##    meters_ps
##        <dbl>
##  1    0.0352
##  2    0.0382
##  3    0.0269
##  4    0.0384
##  5    0.0357
##  6    0.0387
##  7    0.0352
##  8    0.0270
##  9    0.0268
## 10    0.0357
## # … with 166 more rows
…
