Visualization
…
#this creates a new variable for age of each politician using their term start and birthday
data$age <- as.numeric(round((as.Date(data$termstart) - as.Date(data$birthday))/365))

#this creates a new variable that seperates the year in which each politicial started their term
data$year <- substring(data$termstart,1,4) 

#this calculates the mean age for each year by party and makes a new dataset that we'll use to plot
new <- data %>%
  group_by(year, party ) %>%
  summarise_at(vars(age), list(name = mean))

#checking. looks good, but we need to look at only republican and democrat
print(new)

## # A tibble: 104 × 3
## # Groups:   year [34]
##    year  party  name
##    <chr> <chr> <dbl>
##  1 1947  AL     40.5
##  2 1947  D      52.1
##  3 1947  R      53.0
##  4 1949  AL     46  
##  5 1949  D      51.5
##  6 1949  I      38  
##  7 1949  L      34  
##  8 1949  R      54.6
##  9 1951  D      52.3
## 10 1951  I      47  
## # … with 94 more rows
…
